{
  "images" : [
    {
      "idiom" : "universal",
      "filename" : "20 × 20.png",
      "scale" : "1x"
    },
    {
      "idiom" : "universal",
      "filename" : "40 × 40.png",
      "scale" : "2x"
    },
    {
      "idiom" : "universal",
      "filename" : "60 × 60.png",
      "scale" : "3x"
    }
  ],
  "info" : {
    "version" : 1,
    "author" : "xcode"
  }
}